Introducción a R y RStudio – Steven García Goñi
…
Las tablas también se pueden cargar, de texto plano (.csv, .txt, .tsv, etc), MS Excel, objetos de R, entre otros.

Descargar datos csv

library(readr)

# esta forma de programar se puede denominar como explícita, en el tanto
# especifica paquete::función()

consumo <- readr::read_csv("datos/ConsumoElectrico.csv")

consumo

# A tibble: 74 × 4
   Consumo Zona   Tipo Habitantes
     <dbl> <chr> <dbl>      <dbl>
 1     274 A         1          3
 2     186 A         1          7
 3      49 A         1          4
 4     249 A         1          4
 5      76 A         1          3
 6     315 A         1          4
 7     194 A         1          6
 8     113 A         0          2
 9     121 A         0          4
10     263 A         0          3
# ℹ 64 more rows
…
